D1,V1,A1,D2,V2,A2,D3,V3,A3,D4,V4,A4,D5,V5,A5,D6,V6,A6,D7,V7,A7,D8,V8,A8,Class
1.023,89.184,1655.0,1.039,87.199,1829.0,1.032,122.258,1628.0,1.224,171.066,4439.0,1.056,20.72,1236.0,1.064,55.904,1762.0,1.262,153.519,5816.0,1.224,171.066,4439.0,1
0.902,182.449,544.0,0.902,182.449,544.0,0.902,183.125,544.0,0.923,199.551,622.0,0.0,0.0,0.0,0.542,95.118,34.0,0.879,160.727,450.0,0.923,199.551,622.0,1
1.166,51.749,5079.0,1.164,72.012,4839.0,1.172,115.941,5005.0,1.22,182.955,6307.0,1.203,19.963,5549.0,1.222,63.468,6463.0,1.291,141.798,9805.0,1.22,182.955,6307.0,0
1.137,45.849,4339.0,1.138,69.061,4278.0,1.22,111.325,6496.0,1.292,179.079,10170.0,1.2,21.872,5615.0,1.254,69.398,7702.0,1.365,144.257,15136.0,1.292,179.079,10170.0,0
0.86,133.194,232.0,0.86,133.194,232.0,0.86,133.194,232.0,0.847,150.536,222.0,0.0,0.0,0.0,0.0,0.0,0.0,0.854,125.068,235.0,0.847,150.536,222.0,1
1.143,44.966,4113.0,1.143,62.059,4017.0,1.171,101.562,4690.0,1.109,182.308,3193.0,1.255,17.345,5528.0,1.244,52.676,6098.0,1.223,122.156,6959.0,1.109,182.308,3193.0,0
1.181,48.651,5494.0,1.161,71.516,4661.0,1.191,104.165,5605.0,1.438,152.161,21578.0,1.226,15.866,6427.0,1.229,53.839,6408.0,1.45,133.749,24630.0,1.438,152.161,21578.0,0
1.161,44.058,4641.0,1.153,61.882,4442.0,1.198,99.792,5607.0,1.414,167.423,19072.0,1.231,17.9,6349.0,1.257,56.506,7334.0,1.465,146.357,26360.0,1.414,167.423,19072.0,0
1.175,86.842,5441.0,1.191,96.316,5927.0,1.208,128.585,6520.0,1.115,209.86,3465.0,1.178,21.094,5073.0,1.218,55.27,6253.0,1.202,120.344,6442.0,1.115,209.86,3465.0,0
0.809,171.355,256.0,0.809,171.355,256.0,0.809,171.355,256.0,0.831,185.862,298.0,0.0,0.0,0.0,0.0,0.0,0.0,0.923,175.591,499.0,0.831,185.862,298.0,1
1.186,51.107,5775.0,1.183,73.226,5299.0,1.208,113.671,5940.0,1.275,156.501,8932.0,1.23,18.356,6810.0,1.241,56.962,6753.0,1.315,123.246,10855.0,1.275,156.501,8932.0,0
0.928,149.404,312.0,0.928,149.404,312.0,0.928,149.404,312.0,0.957,162.234,394.0,0.0,0.0,0.0,0.0,0.0,0.0,1.054,152.653,631.0,0.957,162.234,394.0,1
0.856,196.896,240.0,0.856,196.896,240.0,0.856,196.896,240.0,0.898,205.732,325.0,0.0,0.0,0.0,0.0,0.0,0.0,0.952,197.993,426.0,0.898,205.732,325.0,1
1.146,49.668,4488.0,1.146,68.283,4368.0,1.166,114.398,4691.0,1.223,161.922,6760.0,1.213,19.776,6034.0,1.227,60.544,6406.0,1.272,127.698,8459.0,1.223,161.922,6760.0,0
0.99,156.239,536.0,0.99,156.239,536.0,0.99,156.239,536.0,1.002,176.929,609.0,0.0,0.0,0.0,0.0,0.0,0.0,1.126,164.459,1139.0,1.002,176.929,609.0,1
1.141,48.957,3605.0,1.145,60.287,3757.0,1.153,103.286,3943.0,1.4,153.102,15329.0,1.222,16.974,4576.0,1.246,49.209,5374.0,1.42,134.05,17737.0,1.4,153.102,15329.0,0
0.88,177.545,376.0,0.88,177.545,376.0,0.88,177.545,376.0,0.92,187.264,497.0,0.0,0.0,0.0,0.0,0.0,0.0,0.927,174.531,522.0,0.92,187.264,497.0,1
1.08,63.416,2558.0,1.114,63.995,3229.0,1.11,105.111,3008.0,1.239,154.638,6039.0,1.15,20.58,3692.0,1.18,54.479,4255.0,1.267,129.017,7124.0,1.239,154.638,6039.0,0
0.865,167.646,384.0,0.865,167.646,384.0,0.865,167.646,384.0,0.92,178.788,553.0,0.0,0.0,0.0,0.0,0.0,0.0,0.967,168.873,706.0,0.92,178.788,553.0,1
1.148,40.497,4427.0,1.148,60.075,4565.0,1.2,105.092,5693.0,1.339,179.447,13164.0,1.219,18.529,6080.0,1.249,58.017,7204.0,1.41,152.563,20151.0,1.339,179.447,13164.0,0
0.865,131.076,384.0,0.865,131.076,384.0,0.869,132.344,393.0,0.869,160.846,402.0,0.0,0.0,0.0,0.765,79.25,144.0,0.876,124.488,428.0,0.869,160.846,402.0,1
1.109,45.687,3141.0,1.107,58.818,3131.0,1.148,95.963,3872.0,1.377,155.877,13404.0,1.191,19.398,4481.0,1.221,58.62,5250.0,1.392,136.044,15179.0,1.377,155.877,13404.0,0
0.788,171.75,224.0,0.788,171.75,224.0,0.788,171.75,224.0,0.923,185.475,324.0,0.0,0.0,0.0,0.0,0.0,0.0,0.93,177.278,540.0,0.923,185.475,324.0,1
1.267,24.308,8988.0,1.172,53.707,5425.0,1.143,97.302,4197.0,1.212,150.245,6062.0,1.326,15.692,11772.0,1.24,54.603,7629.0,1.275,121.063,9046.0,1.212,150.245,6062.0,0
0.945,136.691,624.0,0.945,136.691,624.0,0.945,136.691,624.0,1.064,164.253,784.0,0.0,0.0,0.0,0.0,0.0,0.0,1.081,147.401,1346.0,1.064,164.253,784.0,1
1.175,34.819,5137.0,1.147,52.323,4299.0,1.22,83.814,6472.0,1.18,165.584,4412.0,1.276,17.192,7322.0,1.283,54.478,8888.0,1.313,114.453,11472.0,1.18,165.584,4412.0,0
1.27,29.61,9244.0,1.18,55.216,5462.0,1.179,86.276,5184.0,1.21,153.073,5906.0,1.318,13.439,11233.0,1.262,41.544,7710.0,1.302,112.838,10838.0,1.21,153.073,5906.0,0
0.975,163.895,440.0,0.975,163.895,440.0,0.975,163.895,440.0,0.981,188.877,471.0,0.0,0.0,0.0,0.0,0.0,0.0,1.093,173.23,845.0,0.981,188.877,471.0,1
1.542,10.059,46392.0,1.164,86.114,4909.0,1.179,136.601,4981.0,1.268,183.168,8341.0,1.559,7.814,48930.0,1.202,64.812,5778.0,1.292,148.063,9297.0,1.268,183.168,8341.0,0
0.919,191.223,336.0,0.919,191.223,336.0,0.919,191.223,336.0,0.992,198.525,510.0,0.0,0.0,0.0,0.0,0.0,0.0,1.05,189.366,637.0,0.992,198.525,510.0,1
1.379,20.443,17963.0,1.208,59.528,6356.0,1.214,95.611,6627.0,1.279,154.127,9025.0,1.415,13.899,19900.0,1.284,59.261,9674.0,1.345,120.993,14019.0,1.279,154.127,9025.0,0
0.957,158.081,520.0,0.957,158.081,520.0,0.957,158.081,520.0,0.988,174.506,646.0,0.0,0.0,0.0,0.0,0.0,0.0,0.978,151.733,577.0,0.988,174.506,646.0,1
1.202,32.386,5851.0,1.129,60.713,3682.0,1.169,94.077,4388.0,1.183,146.105,4638.0,1.253,14.972,7114.0,1.221,57.43,5869.0,1.267,109.404,7308.0,1.183,146.105,4638.0,0
1.208,33.04,5677.0,1.113,65.376,3157.0,1.143,103.402,3689.0,1.268,162.323,7355.0,1.256,14.678,6857.0,1.199,57.591,4785.0,1.316,134.236,9697.0,1.268,162.323,7355.0,0
1.137,46.437,3754.0,1.134,71.517,3384.0,1.161,108.863,3996.0,1.271,165.849,7081.0,1.195,17.807,4891.0,1.208,60.344,5035.0,1.317,134.49,9529.0,1.271,165.849,7081.0,0
1.141,51.805,3728.0,1.148,66.524,3868.0,1.167,112.364,4207.0,1.241,175.62,6122.0,1.212,18.953,4980.0,1.217,58.578,5612.0,1.302,138.051,8863.0,1.241,175.62,6122.0,0
1.133,60.789,3580.0,1.131,72.538,3540.0,1.145,108.138,3736.0,1.267,162.35,7587.0,1.183,18.042,4267.0,1.191,57.478,4890.0,1.317,133.389,9919.0,1.267,162.35,7587.0,0
1.117,40.076,3315.0,1.102,54.493,3091.0,1.202,89.464,5249.0,1.233,147.613,5814.0,1.194,17.524,4580.0,1.221,57.766,5694.0,1.327,114.221,10212.0,1.233,147.613,5814.0,0
1.159,49.23,4310.0,1.121,73.746,3362.0,1.113,116.781,2789.0,1.219,172.372,5274.0,1.21,16.089,4736.0,1.167,56.483,4062.0,1.268,139.962,6693.0,1.219,172.372,5274.0,0
1.131,40.413,3631.0,1.104,59.414,2927.0,1.089,103.893,2496.0,1.181,166.11,2804.0,1.171,14.495,4431.0,1.163,50.803,3908.0,1.195,125.5,4512.0,1.181,166.11,2804.0,0
1.194,47.265,5474.0,1.185,65.14,5130.0,1.18,104.423,5092.0,1.284,169.266,7548.0,1.233,17.68,6022.0,1.244,56.046,7178.0,1.316,131.726,11243.0,1.284,169.266,7548.0,0
1.187,38.197,5233.0,1.182,57.33,4955.0,1.19,97.225,5372.0,1.261,160.66,7867.0,1.272,17.202,6734.0,1.255,52.191,7402.0,1.335,126.438,12459.0,1.261,160.66,7867.0,0
1.334,19.282,12135.0,1.119,66.912,3314.0,1.127,95.056,3420.0,1.246,142.424,6488.0,1.369,8.78,12907.0,1.172,47.463,4163.0,1.291,114.879,8375.0,1.246,142.424,6488.0,0
1.122,57.204,3367.0,1.125,71.838,3361.0,1.135,108.653,3690.0,1.305,157.302,9721.0,1.196,18.457,4079.0,1.186,55.804,4399.0,1.327,132.84,10891.0,1.305,157.302,9721.0,0
1.152,59.843,4333.0,1.155,75.582,4233.0,1.2,106.577,5552.0,1.351,164.763,12032.0,1.215,18.211,5510.0,1.252,55.794,6614.0,1.382,136.081,16396.0,1.351,164.763,12032.0,0
1.177,38.955,4801.0,1.16,57.997,4162.0,1.197,96.899,5215.0,1.2,172.319,4858.0,1.285,16.576,6690.0,1.269,53.378,7041.0,1.3,125.228,9375.0,1.2,172.319,4858.0,0
1.197,41.034,5746.0,1.157,64.064,4592.0,1.179,100.173,5029.0,1.179,177.2,4175.0,1.262,16.792,7577.0,1.253,54.916,7037.0,1.257,120.723,8061.0,1.179,177.2,4175.0,0
1.168,40.598,4616.0,1.15,59.237,3969.0,1.186,96.085,4867.0,1.183,181.245,4493.0,1.249,17.528,6273.0,1.251,56.673,6574.0,1.296,129.948,8955.0,1.183,181.245,4493.0,0
1.138,50.078,4375.0,1.136,65.509,4130.0,1.147,106.329,4474.0,1.42,172.263,20438.0,1.229,19.518,5758.0,1.219,60.121,5912.0,1.438,155.72,23971.0,1.42,172.263,20438.0,0
1.157,40.667,4739.0,1.13,61.371,3962.0,1.165,99.764,4785.0,1.41,163.344,19738.0,1.229,18.723,6149.0,1.234,61.015,6505.0,1.45,146.771,25210.0,1.41,163.344,19738.0,0
1.229,78.298,7187.0,1.225,97.183,6958.0,1.248,127.692,8071.0,1.326,178.976,12746.0,1.225,19.328,6554.0,1.255,60.459,7916.0,1.365,140.16,16634.0,1.326,178.976,12746.0,0
1.176,38.111,4499.0,1.126,58.903,3433.0,1.155,90.146,4156.0,1.313,145.843,9088.0,1.263,15.217,5755.0,1.223,50.684,5346.0,1.343,120.825,11613.0,1.313,145.843,9088.0,0
1.136,66.578,3786.0,1.115,92.547,3157.0,1.112,131.429,2958.0,1.164,188.111,3889.0,1.16,19.436,4039.0,1.141,65.373,3516.0,1.205,143.71,4963.0,1.164,188.111,3889.0,0
1.116,48.954,3292.0,1.081,72.214,2632.0,1.076,114.646,2410.0,1.149,173.571,3604.0,1.161,18.027,3922.0,1.134,60.613,3376.0,1.21,139.736,5109.0,1.149,173.571,3604.0,0
1.115,70.432,3333.0,1.124,79.017,3506.0,1.125,113.11,3571.0,1.335,171.908,11055.0,1.175,19.751,4039.0,1.191,56.867,4377.0,1.351,149.464,13559.0,1.335,171.908,11055.0,0
1.104,49.504,3056.0,1.107,61.724,2927.0,1.103,99.025,2848.0,1.378,155.022,11697.0,1.186,17.26,3979.0,1.186,51.5,4139.0,1.382,137.722,13394.0,1.378,155.022,11697.0,0
1.163,55.195,4689.0,1.15,74.062,4417.0,1.175,110.943,5133.0,1.296,181.01,10045.0,1.203,17.898,5305.0,1.219,55.477,5923.0,1.354,149.17,14995.0,1.296,181.01,10045.0,0
0.835,175.192,208.0,0.835,175.192,208.0,0.835,175.192,208.0,0.899,186.078,283.0,0.0,0.0,0.0,0.0,0.0,0.0,0.904,173.669,335.0,0.899,186.078,283.0,1
1.295,20.28,10870.0,1.098,74.537,2923.0,1.132,84.528,3711.0,1.154,144.142,3861.0,1.315,7.509,11085.0,1.191,44.464,3857.0,1.261,106.708,7773.0,1.154,144.142,3861.0,0
1.208,25.857,5941.0,1.072,62.457,2474.0,1.115,76.257,3152.0,1.157,136.58,3246.0,1.234,10.54,6426.0,1.157,43.225,3577.0,1.242,103.082,6711.0,1.157,136.58,3246.0,0
1.506,10.594,31775.0,1.141,81.763,3502.0,1.139,116.85,3526.0,1.244,161.327,5396.0,1.514,7.408,32867.0,1.152,56.312,3443.0,1.262,132.106,6880.0,1.244,161.327,5396.0,0
1.374,13.177,14853.0,1.072,62.935,2453.0,1.069,96.494,2443.0,1.261,145.66,7510.0,1.423,8.34,15638.0,1.125,53.024,3189.0,1.283,126.797,8428.0,1.261,145.66,7510.0,0
0.895,202.812,256.0,0.895,202.812,256.0,0.895,202.812,256.0,0.921,212.43,316.0,0.0,0.0,0.0,0.0,0.0,0.0,0.985,204.682,434.0,0.921,212.43,316.0,1
1.163,54.384,4155.0,1.166,68.663,4268.0,1.196,107.999,5154.0,1.301,167.306,8913.0,1.254,19.859,5507.0,1.251,60.178,6668.0,1.351,134.996,12226.0,1.301,167.306,8913.0,0
1.435,16.261,23886.0,1.146,68.931,4184.0,1.133,110.361,3826.0,1.216,167.066,4577.0,1.449,10.191,24879.0,1.2,57.166,5294.0,1.244,130.068,7103.0,1.216,167.066,4577.0,0
1.561,8.874,39582.0,1.16,45.478,4318.0,1.159,85.76,4060.0,1.334,134.129,8491.0,1.578,7.4,41885.0,1.243,45.909,6369.0,1.342,110.874,11085.0,1.334,134.129,8491.0,0
1.249,78.006,8131.0,1.245,100.78,7861.0,1.286,125.134,10211.0,1.308,180.421,12116.0,1.233,22.764,6896.0,1.298,72.894,9910.0,1.38,139.466,18228.0,1.308,180.421,12116.0,0
1.281,46.212,9937.0,1.229,76.489,7267.0,1.213,120.848,6575.0,1.26,177.663,8716.0,1.305,17.545,10902.0,1.277,61.095,9207.0,1.33,138.703,13105.0,1.26,177.663,8716.0,0
0.93,133.765,344.0,0.93,133.765,344.0,0.93,133.765,344.0,0.96,145.972,423.0,0.0,0.0,0.0,0.0,0.0,0.0,0.964,128.755,441.0,0.96,145.972,423.0,1
1.204,29.561,6315.0,1.14,55.117,4332.0,1.148,91.652,4511.0,1.333,142.01,12678.0,1.26,16.195,7711.0,1.219,53.238,6421.0,1.363,122.185,15625.0,1.333,142.01,12678.0,0
1.134,48.993,4010.0,1.119,69.099,3593.0,1.122,104.038,3689.0,1.363,157.845,12856.0,1.197,17.454,4930.0,1.182,56.554,4863.0,1.357,138.019,14174.0,1.363,157.845,12856.0,0
0.751,183.593,182.0,0.751,183.593,182.0,0.751,183.593,182.0,0.758,197.432,190.0,0.0,0.0,0.0,0.0,0.0,0.0,0.531,153.418,55.0,0.758,197.432,190.0,1
1.141,73.16,3725.0,1.142,83.788,3709.0,1.158,112.298,4072.0,1.281,166.222,7930.0,1.202,19.295,4099.0,1.228,57.207,4587.0,1.311,135.708,9762.0,1.281,166.222,7930.0,0
1.117,55.528,3204.0,1.119,65.99,3280.0,1.15,97.305,3851.0,1.212,154.147,5151.0,1.204,18.533,4038.0,1.206,55.824,4982.0,1.268,119.464,7369.0,1.212,154.147,5151.0,0
0.824,138.392,176.0,0.824,138.392,176.0,0.824,138.392,176.0,0.827,158.015,197.0,0.0,0.0,0.0,0.0,0.0,0.0,0.919,142.565,315.0,0.827,158.015,197.0,1
1.124,61.539,3338.0,1.118,75.091,3244.0,1.159,111.12,4063.0,1.239,183.325,5970.0,1.182,20.096,3811.0,1.226,56.295,4684.0,1.29,140.232,8758.0,1.239,183.325,5970.0,0
1.176,57.71,5198.0,1.19,69.309,5448.0,1.203,104.621,5859.0,1.124,182.927,3664.0,1.211,17.401,5718.0,1.26,51.838,7260.0,1.229,113.436,7378.0,1.124,182.927,3664.0,0
1.147,39.039,4585.0,1.161,55.291,4684.0,1.172,97.039,4961.0,1.423,143.105,21129.0,1.22,16.544,6304.0,1.244,50.199,6948.0,1.43,126.336,21820.0,1.423,143.105,21129.0,0
1.136,62.843,4073.0,1.135,77.578,3968.0,1.158,107.506,4420.0,1.321,161.329,10810.0,1.182,19.049,4725.0,1.207,57.194,5345.0,1.34,135.847,12992.0,1.321,161.329,10810.0,0
0.799,118.947,152.0,0.799,118.947,152.0,0.799,118.947,152.0,0.783,138.65,143.0,0.0,0.0,0.0,0.0,0.0,0.0,0.803,112.231,160.0,0.783,138.65,143.0,1
0.966,158.898,1040.0,0.966,158.898,1040.0,0.966,158.898,1040.0,1.096,186.893,2215.0,0.0,0.0,0.0,0.0,0.0,0.0,1.147,173.522,2931.0,1.096,186.893,2215.0,1
1.21,32.038,6292.0,1.201,50.976,5891.0,1.217,85.666,6452.0,1.458,141.763,25366.0,1.291,16.163,8019.0,1.292,48.498,8146.0,1.49,125.744,32577.0,1.458,141.763,25366.0,0
0.833,171.034,296.0,0.833,171.034,296.0,0.833,171.034,296.0,0.827,191.327,297.0,0.0,0.0,0.0,0.0,0.0,0.0,0.89,171.125,417.0,0.827,191.327,297.0,1
1.14,41.859,4053.0,1.13,61.665,3771.0,1.154,102.029,4518.0,1.359,175.66,14328.0,1.252,18.014,5243.0,1.213,57.373,5846.0,1.411,154.356,21232.0,1.359,175.66,14328.0,0
1.165,57.473,4749.0,1.157,70.157,4485.0,1.172,98.879,5004.0,1.319,145.897,11208.0,1.215,16.32,5295.0,1.236,53.241,6266.0,1.343,119.561,12903.0,1.319,145.897,11208.0,0
1.17,36.82,4543.0,1.131,57.406,3497.0,1.152,91.318,3911.0,1.396,138.92,14687.0,1.243,15.475,6010.0,1.225,51.282,5399.0,1.395,121.809,15373.0,1.396,138.92,14687.0,0
1.184,46.992,5115.0,1.182,58.343,4976.0,1.198,88.258,5795.0,1.416,134.481,18657.0,1.238,15.88,5962.0,1.266,48.4,7396.0,1.427,114.438,20728.0,1.416,134.481,18657.0,0
1.155,41.158,4205.0,1.154,53.311,4167.0,1.21,82.57,5590.0,1.416,133.611,17061.0,1.222,15.764,5514.0,1.263,49.642,7247.0,1.453,114.409,21293.0,1.416,133.611,17061.0,0
1.164,55.077,4536.0,1.134,75.374,3780.0,1.134,110.397,3762.0,1.316,167.359,9502.0,1.2,17.119,4839.0,1.18,55.147,4430.0,1.34,143.74,12602.0,1.316,167.359,9502.0,0
0.802,182.242,384.0,0.802,182.242,384.0,0.802,182.242,384.0,0.825,194.154,455.0,0.0,0.0,0.0,0.0,0.0,0.0,0.831,164.119,285.0,0.825,194.154,455.0,1
0.718,171.099,152.0,0.718,171.099,152.0,0.718,171.099,152.0,0.831,177.717,325.0,0.0,0.0,0.0,0.0,0.0,0.0,0.822,171.69,300.0,0.831,177.717,325.0,1
0.913,163.393,336.0,0.913,163.393,336.0,0.913,163.393,336.0,1.095,174.782,949.0,0.0,0.0,0.0,0.0,0.0,0.0,1.132,168.028,1200.0,1.095,174.782,949.0,1
1.18,43.063,5123.0,1.151,65.822,4257.0,1.168,99.233,4853.0,1.366,152.505,14460.0,1.25,16.671,6488.0,1.238,54.826,6469.0,1.385,129.933,16234.0,1.366,152.505,14460.0,0
1.183,30.993,4974.0,1.168,45.482,4422.0,1.193,80.113,5047.0,1.418,136.086,14884.0,1.298,15.413,7379.0,1.276,47.462,7628.0,1.421,115.211,17652.0,1.418,136.086,14884.0,0
0.783,182.17,224.0,0.783,182.17,224.0,0.783,182.17,224.0,0.782,195.391,225.0,0.0,0.0,0.0,0.0,0.0,0.0,0.72,169.427,171.0,0.782,195.391,225.0,1
1.136,44.69,4451.0,1.139,62.112,4390.0,1.184,102.397,5351.0,1.204,186.307,5345.0,1.188,17.782,5397.0,1.231,56.782,6842.0,1.296,136.74,10354.0,1.204,186.307,5345.0,0
0.881,170.909,264.0,0.881,170.909,264.0,0.881,170.909,264.0,0.915,183.009,339.0,0.0,0.0,0.0,0.0,0.0,0.0,1.026,174.715,599.0,0.915,183.009,339.0,1
1.132,39.537,4000.0,1.12,53.389,3890.0,1.136,90.429,3962.0,1.234,139.774,7151.0,1.195,18.217,5181.0,1.211,53.486,5766.0,1.302,115.755,10303.0,1.234,139.774,7151.0,0
0.824,162.932,176.0,0.824,162.932,176.0,0.824,162.932,176.0,0.885,173.63,281.0,0.0,0.0,0.0,0.0,0.0,0.0,0.919,163.796,318.0,0.885,173.63,281.0,1
1.161,46.499,4161.0,1.139,63.569,3668.0,1.164,98.632,4242.0,1.414,159.364,17016.0,1.22,17.078,5216.0,1.229,55.424,5661.0,1.445,140.681,20481.0,1.414,159.364,17016.0,0
1.145,71.304,4130.0,1.156,83.175,4284.0,1.181,114.899,4993.0,1.293,177.992,8539.0,1.203,20.591,5049.0,1.224,60.395,5934.0,1.329,142.391,12003.0,1.293,177.992,8539.0,0
0.899,202.75,296.0,0.899,202.75,296.0,0.899,202.75,296.0,0.976,210.399,516.0,0.0,0.0,0.0,0.0,0.0,0.0,1.015,204.252,580.0,0.976,210.399,516.0,1
1.192,45.541,5436.0,1.18,60.33,5013.0,1.179,97.017,5165.0,1.36,145.758,13016.0,1.279,17.551,6579.0,1.255,53.219,7285.0,1.358,121.722,14352.0,1.36,145.758,13016.0,0
0.929,186.212,392.0,0.929,186.212,392.0,0.929,186.212,392.0,1.02,196.788,693.0,0.0,0.0,0.0,0.0,0.0,0.0,1.042,185.738,756.0,1.02,196.788,693.0,1
0.968,230.787,776.0,0.968,230.787,776.0,0.968,230.787,776.0,1.126,235.449,2031.0,0.0,0.0,0.0,0.0,0.0,0.0,1.149,232.362,2197.0,1.126,235.449,2031.0,1
1.228,24.088,6954.0,1.208,40.336,6248.0,1.19,87.441,5421.0,1.289,158.708,9174.0,1.314,18.351,10936.0,1.292,52.199,9777.0,1.361,128.602,14784.0,1.289,158.708,9174.0,0
0.965,180.302,880.0,0.965,180.302,880.0,0.965,180.302,880.0,1.123,196.998,2218.0,0.0,0.0,0.0,0.0,0.0,0.0,1.158,186.047,2613.0,1.123,196.998,2218.0,1
1.177,35.772,5402.0,1.19,54.219,5609.0,1.191,105.575,5564.0,1.362,172.994,14729.0,1.256,20.137,7549.0,1.273,60.959,8525.0,1.409,148.729,19107.0,1.362,172.994,14729.0,0
1.241,55.441,7439.0,1.227,74.214,7033.0,1.327,98.002,12691.0,1.311,156.825,11406.0,1.259,20.229,7513.0,1.35,65.485,13894.0,1.402,111.802,20008.0,1.311,156.825,11406.0,0
0.904,173.01,306.0,0.904,173.01,306.0,0.904,173.01,306.0,0.907,189.09,312.0,0.0,0.0,0.0,0.0,0.0,0.0,0.7,146.471,102.0,0.907,189.09,312.0,1
0.939,159.825,848.0,0.939,159.825,848.0,0.943,158.563,875.0,0.975,183.025,1070.0,0.0,0.0,0.0,0.744,95.217,138.0,1.013,161.839,1319.0,0.975,183.025,1070.0,1
1.238,61.366,7373.0,1.233,77.629,7321.0,1.235,115.483,7424.0,1.405,166.266,20020.0,1.271,18.546,8445.0,1.28,56.458,9503.0,1.441,141.518,24726.0,1.405,166.266,20020.0,0
1.119,76.567,3424.0,1.137,85.252,3822.0,1.161,121.072,4462.0,1.307,175.698,9610.0,1.139,21.486,3799.0,1.198,61.708,5130.0,1.337,145.021,11976.0,1.307,175.698,9610.0,0
1.101,60.736,2891.0,1.125,65.795,3340.0,1.125,104.772,3402.0,1.233,159.773,6049.0,1.159,19.344,3961.0,1.195,53.949,4723.0,1.275,127.989,7825.0,1.233,159.773,6049.0,0
0.948,151.532,928.0,0.948,151.532,928.0,0.973,153.613,1064.0,1.019,184.057,1381.0,0.0,0.0,0.0,0.944,79.026,611.0,1.043,149.56,1582.0,1.019,184.057,1381.0,1
1.113,49.727,3550.0,1.153,58.998,4222.0,1.208,98.039,6069.0,1.296,161.921,10289.0,1.229,21.293,5731.0,1.265,57.978,7616.0,1.363,128.605,14831.0,1.296,161.921,10289.0,0
0.893,129.217,664.0,0.893,129.217,664.0,0.918,122.046,791.0,0.977,158.079,1084.0,0.0,0.0,0.0,0.888,73.125,288.0,1.054,134.283,1711.0,0.977,158.079,1084.0,1
1.174,40.209,5135.0,1.131,65.555,3937.0,1.148,106.075,4248.0,1.349,167.998,12453.0,1.241,17.279,6368.0,1.212,56.96,5718.0,1.378,144.754,15919.0,1.349,167.998,12453.0,0
1.223,51.512,6817.0,1.203,75.909,5934.0,1.23,107.78,7188.0,1.308,169.654,11173.0,1.267,18.432,7806.0,1.259,59.822,7943.0,1.389,138.617,18195.0,1.308,169.654,11173.0,0
0.99,143.931,624.0,0.99,143.931,624.0,0.99,143.931,624.0,1.066,165.514,970.0,0.0,0.0,0.0,0.0,0.0,0.0,1.103,144.954,1183.0,1.066,165.514,970.0,1
0.898,149.307,688.0,0.898,149.307,688.0,0.906,151.705,726.0,0.899,178.127,708.0,0.0,0.0,0.0,0.881,79.288,389.0,0.904,128.61,589.0,0.899,178.127,708.0,1
1.275,22.98,8960.0,1.174,45.772,5266.0,1.16,88.667,4749.0,1.423,145.706,19300.0,1.336,15.482,11937.0,1.268,50.461,8143.0,1.429,128.693,22042.0,1.423,145.706,19300.0,0
1.395,15.371,18404.0,1.145,71.441,4203.0,1.117,113.4,3651.0,1.337,163.361,11855.0,1.424,9.088,19896.0,1.195,53.446,5038.0,1.361,142.912,14140.0,1.337,163.361,11855.0,0
0.855,159.402,256.0,0.855,159.402,256.0,0.855,159.402,256.0,0.926,168.747,403.0,0.0,0.0,0.0,0.0,0.0,0.0,0.956,158.017,461.0,0.926,168.747,403.0,1
0.923,172.669,472.0,0.923,172.669,472.0,0.923,172.669,472.0,1.121,174.641,1410.0,0.0,0.0,0.0,0.0,0.0,0.0,1.105,165.069,1311.0,1.121,174.641,1410.0,1
0.785,145.093,140.0,0.785,145.093,140.0,0.785,145.093,140.0,0.802,161.809,162.0,0.0,0.0,0.0,0.0,0.0,0.0,0.767,140.669,130.0,0.802,161.809,162.0,1
0.796,131.412,376.0,0.796,131.412,376.0,0.796,131.412,376.0,0.789,154.332,368.0,0.0,0.0,0.0,0.0,0.0,0.0,0.836,114.831,397.0,0.789,154.332,368.0,1
1.128,41.363,3533.0,1.114,56.69,3180.0,1.138,91.515,3543.0,1.3,151.664,7762.0,1.224,16.38,4737.0,1.198,51.151,4764.0,1.336,126.364,10465.0,1.3,151.664,7762.0,0
1.224,51.495,7604.0,1.214,66.58,7005.0,1.208,107.242,6053.0,1.359,157.228,14647.0,1.232,19.691,6603.0,1.27,57.61,8927.0,1.388,133.011,17140.0,1.359,157.228,14647.0,0
0.865,170.907,216.0,0.865,170.907,216.0,0.865,170.907,216.0,0.931,180.29,314.0,0.0,0.0,0.0,0.0,0.0,0.0,0.96,171.952,375.0,0.931,180.29,314.0,1
1.243,79.781,8019.0,1.237,96.902,7844.0,1.275,129.729,9980.0,1.201,208.814,5228.0,1.249,24.15,7696.0,1.32,71.644,11869.0,1.301,127.293,11256.0,1.201,208.814,5228.0,0
0.883,146.814,408.0,0.883,146.814,408.0,0.883,146.814,408.0,0.87,170.258,333.0,0.0,0.0,0.0,0.0,0.0,0.0,0.979,151.016,681.0,0.87,170.258,333.0,1
1.245,65.858,7517.0,1.239,81.118,7376.0,1.267,107.214,8994.0,1.197,191.529,5533.0,1.271,22.505,8431.0,1.308,59.167,11319.0,1.31,117.435,12405.0,1.197,191.529,5533.0,0
0.855,158.062,384.0,0.855,158.062,384.0,0.855,158.062,384.0,0.929,179.018,442.0,0.0,0.0,0.0,0.0,0.0,0.0,0.989,166.481,832.0,0.929,179.018,442.0,1
1.275,63.321,9140.0,1.263,79.761,8639.0,1.268,114.77,9022.0,1.511,156.66,37972.0,1.283,20.043,9434.0,1.313,58.14,11861.0,1.532,140.067,44315.0,1.511,156.66,37972.0,0
1.237,57.032,7643.0,1.219,76.966,6764.0,1.234,108.885,7335.0,1.483,153.431,32498.0,1.265,17.676,8566.0,1.28,55.042,9298.0,1.508,137.059,38893.0,1.483,153.431,32498.0,0
1.168,33.979,4919.0,1.169,48.947,4745.0,1.236,90.458,7321.0,1.276,156.753,8760.0,1.243,19.262,6789.0,1.299,61.2,10283.0,1.369,120.823,15508.0,1.276,156.753,8760.0,0
1.173,24.615,5404.0,1.175,41.602,5285.0,1.216,93.601,6401.0,1.283,160.593,8695.0,1.255,17.771,7794.0,1.296,61.838,10591.0,1.368,128.44,14968.0,1.283,160.593,8695.0,0
1.229,77.44,7546.0,1.232,90.04,7609.0,1.267,121.081,9359.0,1.208,205.47,5493.0,1.232,23.548,6990.0,1.307,68.988,11586.0,1.315,129.352,12125.0,1.208,205.47,5493.0,0
1.207,67.808,6496.0,1.204,83.232,6350.0,1.227,117.493,7338.0,1.178,202.59,4038.0,1.241,22.277,7055.0,1.292,64.794,9765.0,1.268,123.311,9092.0,1.178,202.59,4038.0,0
0.821,129.277,224.0,0.821,129.277,224.0,0.821,129.277,224.0,0.809,148.391,207.0,0.0,0.0,0.0,0.0,0.0,0.0,0.767,110.724,174.0,0.809,148.391,207.0,1
0.833,162.165,200.0,0.833,162.165,200.0,0.833,162.165,200.0,0.877,175.338,272.0,0.0,0.0,0.0,0.0,0.0,0.0,0.956,166.132,417.0,0.877,175.338,272.0,0
1.245,71.486,7957.0,1.257,82.129,8372.0,1.258,112.713,8585.0,1.49,145.397,34328.0,1.242,23.16,7378.0,1.282,57.32,9685.0,1.493,129.718,34871.0,1.49,145.397,34328.0,0
0.828,154.603,224.0,0.828,154.603,224.0,0.828,154.603,224.0,0.839,170.225,262.0,0.0,0.0,0.0,0.0,0.0,0.0,0.976,160.393,537.0,0.839,170.225,262.0,1
0.862,169.654,384.0,0.862,169.654,384.0,0.862,169.654,384.0,0.937,178.692,604.0,0.0,0.0,0.0,0.0,0.0,0.0,0.924,164.217,549.0,0.937,178.692,604.0,1
1.228,58.263,7470.0,1.24,71.55,7935.0,1.394,97.196,19299.0,1.343,166.935,13960.0,1.267,22.768,9266.0,1.406,68.833,20046.0,1.475,115.22,30548.0,1.343,166.935,13960.0,0
1.223,75.541,7009.0,1.252,80.597,8574.0,1.266,119.324,9141.0,1.171,208.502,5214.0,1.23,27.863,7593.0,1.301,59.587,10972.0,1.29,121.982,11355.0,1.171,208.502,5214.0,0
1.04,136.896,1384.0,1.04,136.896,1384.0,1.04,136.896,1384.0,1.255,156.517,4034.0,0.0,0.0,0.0,0.0,0.0,0.0,1.27,143.12,5052.0,1.255,156.517,4034.0,1
1.236,70.778,7865.0,1.24,85.411,7919.0,1.285,110.711,10334.0,1.214,196.139,6189.0,1.221,19.186,6626.0,1.292,56.781,10290.0,1.324,115.487,12989.0,1.214,196.139,6189.0,0
0.972,159.996,488.0,0.972,159.996,488.0,0.972,159.996,488.0,1.062,173.001,793.0,0.0,0.0,0.0,0.0,0.0,0.0,1.071,155.356,857.0,1.062,173.001,793.0,1
1.187,87.799,5096.0,1.176,103.918,4795.0,1.162,133.308,4703.0,1.554,178.051,49332.0,1.161,23.418,3726.0,1.196,71.557,4788.0,1.561,169.287,49937.0,1.554,178.051,49332.0,0
0.86,204.399,376.0,0.86,204.399,376.0,0.86,204.399,376.0,1.074,208.21,1378.0,0.0,0.0,0.0,0.0,0.0,0.0,1.075,204.309,1290.0,1.074,208.21,1378.0,1
1.287,61.402,10164.0,1.281,73.424,9907.0,1.272,101.331,9418.0,1.441,139.566,25139.0,1.269,20.585,8974.0,1.323,51.529,11991.0,1.466,118.778,30552.0,1.441,139.566,25139.0,0
1.211,64.183,6851.0,1.197,82.005,6204.0,1.223,106.169,7177.0,1.405,135.357,19787.0,1.22,21.139,6890.0,1.229,53.667,7518.0,1.398,115.033,20069.0,1.405,135.357,19787.0,0
0.915,162.499,752.0,0.915,162.499,752.0,0.915,162.499,752.0,1.053,178.789,1586.0,0.0,0.0,0.0,0.0,0.0,0.0,1.155,171.022,2896.0,1.053,178.789,1586.0,1
1.089,48.907,2884.0,1.113,53.354,3489.0,1.137,88.431,3813.0,1.428,151.519,20253.0,1.177,19.023,4377.0,1.207,51.099,5378.0,1.45,136.974,24429.0,1.428,151.519,20253.0,0
1.113,74.053,3435.0,1.142,77.357,4116.0,1.14,115.648,4055.0,1.381,161.203,16246.0,1.178,21.61,4482.0,1.243,58.044,5480.0,1.399,143.447,17600.0,1.381,161.203,16246.0,0
0.902,145.503,696.0,0.902,145.503,696.0,0.902,145.503,696.0,1.052,154.859,1760.0,0.0,0.0,0.0,0.0,0.0,0.0,1.047,144.041,1667.0,1.052,154.859,1760.0,1
1.173,57.734,5231.0,1.189,72.096,5562.0,1.199,113.523,5698.0,1.469,171.667,26989.0,1.221,20.054,6274.0,1.255,58.232,7337.0,1.486,154.624,30363.0,1.469,171.667,26989.0,0
0.844,166.206,480.0,0.844,166.206,480.0,0.844,166.206,480.0,1.028,174.122,1422.0,0.0,0.0,0.0,0.0,0.0,0.0,1.023,167.137,1334.0,1.028,174.122,1422.0,1
1.155,57.704,4483.0,1.17,65.615,4826.0,1.166,102.65,4735.0,1.27,163.32,8246.0,1.213,17.826,5517.0,1.253,51.443,6828.0,1.314,129.423,11558.0,1.27,163.32,8246.0,0
1.116,50.445,3207.0,1.116,63.563,3227.0,1.157,95.58,4186.0,1.338,160.115,10783.0,1.219,18.739,4338.0,1.221,58.805,5448.0,1.368,136.233,13881.0,1.338,160.115,10783.0,0
0.933,174.551,392.0,0.933,174.551,392.0,0.933,174.551,392.0,0.977,181.441,513.0,0.0,0.0,0.0,0.0,0.0,0.0,0.912,155.366,350.0,0.977,181.441,513.0,1
1.169,42.601,4770.0,1.156,62.028,4647.0,1.174,110.939,4960.0,1.264,176.306,8422.0,1.237,19.811,6603.0,1.246,61.234,7048.0,1.331,143.999,12450.0,1.264,176.306,8422.0,0
0.771,183.296,328.0,0.771,183.296,328.0,0.771,183.296,328.0,0.835,186.23,461.0,0.0,0.0,0.0,0.0,0.0,0.0,0.822,173.45,278.0,0.835,186.23,461.0,1
1.083,59.329,2577.0,1.109,63.274,3036.0,1.128,93.036,3462.0,1.197,159.886,4680.0,1.173,18.891,3512.0,1.22,52.387,4441.0,1.265,125.789,7773.0,1.197,159.886,4680.0,0
0.888,141.29,272.0,0.888,141.29,272.0,0.888,141.29,272.0,1.01,149.54,559.0,0.0,0.0,0.0,0.0,0.0,0.0,1.104,143.785,1026.0,1.01,149.54,559.0,1
1.16,35.039,4647.0,1.151,51.244,4461.0,1.185,92.632,5239.0,1.131,177.603,3771.0,1.254,15.902,6559.0,1.25,48.832,7301.0,1.256,119.038,8503.0,1.131,177.603,3771.0,0
1.154,60.22,4456.0,1.153,75.448,4390.0,1.202,106.657,5879.0,1.306,161.653,10077.0,1.23,19.67,5628.0,1.262,61.853,7047.0,1.349,129.641,13518.0,1.306,161.653,10077.0,0
0.902,145.983,648.0,0.902,145.983,648.0,0.902,145.983,648.0,0.939,167.948,831.0,0.0,0.0,0.0,0.0,0.0,0.0,1.009,149.804,1207.0,0.939,167.948,831.0,1
0.909,139.807,488.0,0.909,139.832,488.0,0.906,159.284,482.0,0.934,182.463,594.0,0.203,27.75,4.0,0.915,64.352,310.0,0.986,141.294,494.0,0.934,182.463,594.0,1
1.158,43.23,4988.0,1.162,64.509,4927.0,1.239,107.578,7341.0,1.258,178.512,8105.0,1.227,21.724,6634.0,1.285,70.151,9301.0,1.357,138.51,14437.0,1.258,178.512,8105.0,0
1.431,13.932,25189.0,1.164,76.776,4774.0,1.17,113.387,5044.0,1.326,155.276,12624.0,1.464,9.037,27039.0,1.225,60.159,6264.0,1.343,131.644,13564.0,1.326,155.276,12624.0,0
1.103,61.757,3226.0,1.143,66.039,4339.0,1.177,106.818,5165.0,1.373,154.886,15676.0,1.195,22.957,5007.0,1.235,60.768,6761.0,1.395,135.494,17789.0,1.373,154.886,15676.0,0
0.877,153.699,256.0,0.877,153.699,256.0,0.877,153.699,256.0,0.907,169.817,317.0,0.0,0.0,0.0,0.0,0.0,0.0,0.997,154.764,454.0,0.907,169.817,317.0,1
1.136,48.318,3659.0,1.122,64.172,3338.0,1.172,96.331,4336.0,1.382,153.552,12018.0,1.213,17.317,4996.0,1.225,55.684,5474.0,1.39,131.272,14509.0,1.382,153.552,12018.0,0
1.126,57.729,3553.0,1.115,76.906,3157.0,1.141,107.4,3614.0,1.335,158.788,10830.0,1.176,17.516,4416.0,1.205,55.003,4246.0,1.36,136.637,12300.0,1.335,158.788,10830.0,0
0.934,159.819,552.0,0.934,159.819,552.0,0.934,159.819,552.0,0.947,184.683,647.0,0.0,0.0,0.0,0.0,0.0,0.0,1.034,163.777,972.0,0.947,184.683,647.0,1
0.924,210.881,528.0,0.924,210.881,528.0,0.924,210.881,528.0,1.043,223.112,1048.0,0.0,0.0,0.0,0.0,0.0,0.0,1.069,212.621,1236.0,1.043,223.112,1048.0,1
1.142,44.354,3687.0,1.138,61.141,3586.0,1.098,119.733,2665.0,1.212,189.321,4925.0,1.228,18.217,4947.0,1.197,60.541,4657.0,1.268,155.983,6905.0,1.212,189.321,4925.0,0
0.883,146.264,424.0,0.883,146.264,424.0,0.883,146.264,424.0,0.949,165.34,614.0,0.0,0.0,0.0,0.0,0.0,0.0,1.008,152.672,867.0,0.949,165.34,614.0,1
1.162,48.218,4227.0,1.143,65.552,3768.0,1.158,100.553,4017.0,1.329,167.778,10033.0,1.241,16.66,5188.0,1.227,54.512,5556.0,1.373,142.341,13571.0,1.329,167.778,10033.0,0
1.214,50.974,6755.0,1.205,67.099,6324.0,1.249,99.362,7434.0,1.341,143.67,13556.0,1.262,18.54,8160.0,1.295,57.161,9723.0,1.398,117.548,17487.0,1.341,143.67,13556.0,0
0.993,171.063,904.0,0.993,171.063,904.0,0.993,171.063,904.0,1.086,200.709,931.0,0.0,0.0,0.0,0.0,0.0,0.0,1.128,184.144,1902.0,1.086,200.709,931.0,1
1.484,12.073,34868.0,1.141,81.039,3798.0,1.195,103.972,5281.0,1.322,156.381,10317.0,1.51,7.513,36069.0,1.273,61.833,6044.0,1.369,127.014,13372.0,1.322,156.381,10317.0,0
0.859,171.671,368.0,0.859,171.671,368.0,0.859,171.671,368.0,1.048,178.506,1132.0,0.0,0.0,0.0,0.0,0.0,0.0,1.089,171.701,1402.0,1.048,178.506,1132.0,1
1.387,17.015,17731.0,1.158,58.654,4468.0,1.21,87.417,6101.0,1.325,142.735,10398.0,1.425,10.982,19655.0,1.276,51.4,7806.0,1.373,115.457,16146.0,1.325,142.735,10398.0,0
0.97,146.929,480.0,0.97,146.929,480.0,0.97,146.929,480.0,1.009,166.437,607.0,0.0,0.0,0.0,0.0,0.0,0.0,1.029,138.504,679.0,1.009,166.437,607.0,1
1.208,41.502,6267.0,1.214,56.676,6302.0,1.233,82.318,7213.0,1.398,116.224,19622.0,1.25,13.169,7152.0,1.271,38.205,7951.0,1.418,96.414,21415.0,1.398,116.224,19622.0,0
0.777,80.875,240.0,0.777,80.875,240.0,0.777,80.875,240.0,0.728,94.753,186.0,0.0,0.0,0.0,0.0,0.0,0.0,0.893,84.946,466.0,0.728,94.753,186.0,1
0.853,207.15,320.0,0.853,207.15,320.0,0.853,207.15,320.0,1.014,215.02,852.0,0.0,0.0,0.0,0.0,0.0,0.0,1.066,210.528,1147.0,1.014,215.02,852.0,1
1.114,44.43,3225.0,1.087,67.021,2749.0,1.111,108.907,3050.0,1.375,183.305,12290.0,1.205,16.646,4269.0,1.191,61.097,4099.0,1.402,163.832,15812.0,1.375,183.305,12290.0,0
0.968,141.547,1048.0,0.969,142.729,1060.0,0.984,147.928,1168.0,1.067,171.109,1828.0,0.903,24.864,309.0,1.049,67.596,686.0,1.128,135.085,1713.0,1.067,171.109,1828.0,1
1.174,35.066,4923.0,1.158,57.781,4482.0,1.183,103.995,5165.0,1.325,168.569,11626.0,1.252,19.237,6637.0,1.259,60.904,7316.0,1.372,142.051,16025.0,1.325,168.569,11626.0,0
0.821,91.205,200.0,0.821,91.205,200.0,0.821,91.205,200.0,0.889,100.449,314.0,0.0,0.0,0.0,0.0,0.0,0.0,0.904,90.003,318.0,0.889,100.449,314.0,1
1.127,40.958,3772.0,1.139,56.576,4059.0,1.184,95.006,5610.0,1.28,165.458,9418.0,1.221,18.034,5194.0,1.247,53.74,6936.0,1.336,130.994,14099.0,1.28,165.458,9418.0,0
1.135,76.759,3930.0,1.158,88.158,4390.0,1.171,133.474,4752.0,1.317,193.982,10539.0,1.181,22.929,4469.0,1.215,63.804,5419.0,1.329,161.43,12318.0,1.317,193.982,10539.0,0
0.974,143.048,736.0,0.975,142.0,744.0,0.982,153.486,759.0,1.054,179.156,1102.0,0.527,32.516,31.0,0.938,70.798,411.0,1.054,153.742,1153.0,1.054,179.156,1102.0,1
0.855,164.838,240.0,0.855,164.838,240.0,0.855,164.838,240.0,0.926,181.074,379.0,0.0,0.0,0.0,0.0,0.0,0.0,0.993,170.927,551.0,0.926,181.074,379.0,1
1.152,59.899,3883.0,1.149,72.366,3941.0,1.188,103.656,5016.0,1.283,154.229,8057.0,1.232,19.719,4769.0,1.247,60.271,6398.0,1.329,123.987,10966.0,1.283,154.229,8057.0,0
1.168,67.845,5123.0,1.158,87.166,4691.0,1.209,113.545,6175.0,1.464,170.093,26197.0,1.192,19.78,5143.0,1.227,62.225,6341.0,1.483,151.894,30586.0,1.464,170.093,26197.0,0
0.869,166.135,288.0,0.869,166.135,288.0,0.869,166.135,288.0,0.893,188.157,351.0,0.0,0.0,0.0,0.0,0.0,0.0,0.986,174.416,603.0,0.893,188.157,351.0,1
1.188,48.446,5954.0,1.186,70.822,5337.0,1.195,105.821,5627.0,1.333,144.028,12890.0,1.232,17.739,7179.0,1.255,56.291,7412.0,1.365,121.015,14861.0,1.333,144.028,12890.0,0
0.786,172.625,160.0,0.786,172.625,160.0,0.786,172.625,160.0,0.843,181.867,233.0,0.0,0.0,0.0,0.0,0.0,0.0,0.91,174.882,339.0,0.843,181.867,233.0,1
1.166,46.827,5122.0,1.154,67.957,4348.0,1.188,100.66,5406.0,1.273,167.932,8750.0,1.218,16.768,6236.0,1.239,53.471,6440.0,1.34,134.151,13671.0,1.273,167.932,8750.0,0
0.738,153.812,128.0,0.738,153.812,128.0,0.738,153.812,128.0,0.78,166.424,158.0,0.0,0.0,0.0,0.0,0.0,0.0,0.833,156.558,242.0,0.78,166.424,158.0,1
0.773,190.042,144.0,0.773,190.042,144.0,0.773,190.042,144.0,0.81,198.808,182.0,0.0,0.0,0.0,0.0,0.0,0.0,0.822,188.144,194.0,0.81,198.808,182.0,1
1.131,51.752,3578.0,1.117,70.326,3216.0,1.149,109.201,3652.0,1.279,168.976,7726.0,1.225,19.562,4744.0,1.235,62.491,4960.0,1.323,141.897,9973.0,1.279,168.976,7726.0,0
0.969,160.445,688.0,0.969,160.445,688.0,0.969,160.445,688.0,1.09,182.294,1368.0,0.0,0.0,0.0,0.0,0.0,0.0,1.138,166.956,1804.0,1.09,182.294,1368.0,1
1.187,37.322,5762.0,1.168,58.308,4837.0,1.184,98.287,5324.0,1.309,160.038,10833.0,1.262,16.027,7304.0,1.247,51.086,7171.0,1.36,132.04,15211.0,1.309,160.038,10833.0,0
0.711,173.646,96.0,0.711,173.646,96.0,0.711,173.646,96.0,0.647,183.015,68.0,0.0,0.0,0.0,0.0,0.0,0.0,0.743,170.286,126.0,0.647,183.015,68.0,1
0.373,3.938,16.0,0.373,3.938,16.0,0.373,3.938,16.0,0.0,5.0,1.0,0.0,0.0,0.0,0.0,0.0,0.0,0.377,3.882,17.0,0.0,5.0,1.0,0
0.785,141.812,352.0,0.785,141.812,352.0,0.785,141.812,352.0,0.914,153.499,772.0,0.0,0.0,0.0,0.0,0.0,0.0,0.94,141.512,844.0,0.914,153.499,772.0,1
0.671,11.7,80.0,0.671,11.7,80.0,0.671,11.788,80.0,0.661,13.69,84.0,0.0,0.0,0.0,0.108,5.667,3.0,0.706,10.83,100.0,0.661,13.69,84.0,0
1.219,40.781,6639.0,1.199,62.941,5789.0,1.231,103.471,7146.0,1.396,164.848,17703.0,1.267,19.341,8213.0,1.298,63.736,9958.0,1.44,140.379,23487.0,1.396,164.848,17703.0,0
1.184,29.334,5647.0,1.157,56.447,4665.0,1.193,107.77,5556.0,1.292,179.831,9551.0,1.26,20.229,8068.0,1.272,68.985,8486.0,1.362,149.516,15094.0,1.292,179.831,9551.0,0
1.539,12.232,44038.0,1.146,78.909,4510.0,1.168,117.191,4920.0,1.418,183.808,19315.0,1.557,8.797,45372.0,1.219,65.652,6486.0,1.451,165.084,25144.0,1.418,183.808,19315.0,0
0.599,176.643,56.0,0.599,176.643,56.0,0.599,176.643,56.0,0.595,182.803,61.0,0.0,0.0,0.0,0.0,0.0,0.0,0.598,172.081,74.0,0.595,182.803,61.0,1
0.828,139.268,224.0,0.828,139.268,224.0,0.828,139.268,224.0,0.884,148.602,327.0,0.0,0.0,0.0,0.0,0.0,0.0,0.879,135.206,320.0,0.884,148.602,327.0,1
1.178,39.114,5193.0,1.166,61.653,4841.0,1.265,96.911,8621.0,1.408,155.333,19525.0,1.263,18.535,7114.0,1.305,62.449,10085.0,1.455,130.318,26148.0,1.408,155.333,19525.0,0
1.161,56.193,4618.0,1.137,76.71,4013.0,1.167,110.038,4929.0,1.267,162.785,7935.0,1.233,20.933,5724.0,1.226,65.279,6258.0,1.304,130.011,10304.0,1.267,162.785,7935.0,0
0.745,178.156,128.0,0.745,178.156,128.0,0.745,178.156,128.0,0.763,184.552,143.0,0.0,0.0,0.0,0.0,0.0,0.0,0.805,173.776,210.0,0.763,184.552,143.0,1
0.792,163.567,224.0,0.792,163.567,224.0,0.792,163.567,224.0,0.929,169.155,530.0,0.0,0.0,0.0,0.0,0.0,0.0,0.936,159.428,573.0,0.929,169.155,530.0,1
1.454,12.728,21529.0,1.131,54.383,3623.0,1.175,91.992,4423.0,1.334,147.926,10041.0,1.506,9.066,23108.0,1.235,54.723,6185.0,1.375,124.896,13293.0,1.334,147.926,10041.0,0
1.148,41.971,4229.0,1.129,64.779,3722.0,1.202,90.788,5873.0,1.301,146.633,9210.0,1.222,17.575,5647.0,1.25,58.804,7157.0,1.351,116.8,13367.0,1.301,146.633,9210.0,0
0.843,166.135,192.0,0.843,166.135,192.0,0.843,166.135,192.0,0.943,171.363,364.0,0.0,0.0,0.0,0.0,0.0,0.0,0.998,165.045,531.0,0.943,171.363,364.0,1
0.545,188.219,64.0,0.545,188.219,64.0,0.545,188.219,64.0,0.564,193.299,77.0,0.0,0.0,0.0,0.0,0.0,0.0,0.609,184.159,63.0,0.564,193.299,77.0,1
1.131,38.921,3586.0,1.104,58.403,3016.0,1.142,97.175,3640.0,1.357,159.189,11620.0,1.234,17.947,4977.0,1.212,58.31,5191.0,1.385,138.27,14315.0,1.357,159.189,11620.0,0
1.194,44.335,5904.0,1.202,56.245,6098.0,1.174,97.977,5084.0,1.401,149.671,18322.0,1.231,18.502,6580.0,1.27,52.935,8495.0,1.41,130.128,19134.0,1.401,149.671,18322.0,0
1.196,36.401,5808.0,1.184,53.109,5511.0,1.176,95.659,5121.0,1.367,167.659,14406.0,1.254,18.326,7614.0,1.267,54.524,8407.0,1.412,144.385,19575.0,1.367,167.659,14406.0,0
0.851,135.267,344.0,0.851,135.267,344.0,0.851,135.267,344.0,0.948,140.692,634.0,0.0,0.0,0.0,0.0,0.0,0.0,0.978,130.786,767.0,0.948,140.692,634.0,1
1.246,24.274,7479.0,1.192,47.889,5523.0,1.213,80.09,6230.0,1.476,126.405,28654.0,1.336,14.371,10368.0,1.285,47.936,8763.0,1.49,112.712,31010.0,1.476,126.405,28654.0,0
1.162,48.454,4668.0,1.154,66.366,4423.0,1.216,94.312,6203.0,1.274,151.624,8314.0,1.234,17.419,6090.0,1.266,55.862,7364.0,1.348,118.193,13472.0,1.274,151.624,8314.0,0
1.045,86.413,2048.0,1.126,66.454,3545.0,1.163,97.563,4038.0,1.311,144.316,6352.0,1.149,19.442,3834.0,1.202,49.877,5390.0,1.289,112.55,8143.0,1.311,144.316,6352.0,0
1.077,58.585,2753.0,1.171,56.316,5494.0,1.254,88.956,7940.0,1.348,142.826,12289.0,1.216,20.27,6543.0,1.295,55.414,10497.0,1.398,112.775,18153.0,1.348,142.826,12289.0,0
0.729,208.192,104.0,0.729,208.192,104.0,0.729,208.192,104.0,0.743,210.512,121.0,0.0,0.0,0.0,0.0,0.0,0.0,0.625,201.662,65.0,0.743,210.512,121.0,1
1.175,40.812,4899.0,1.163,68.99,4648.0,1.183,102.98,5175.0,1.416,150.486,18105.0,1.238,16.023,6654.0,1.23,52.167,6142.0,1.418,130.891,21001.0,1.416,150.486,18105.0,0
0.682,170.367,128.0,0.682,170.367,128.0,0.682,170.367,128.0,0.719,178.554,175.0,0.0,0.0,0.0,0.0,0.0,0.0,0.742,168.175,194.0,0.719,178.554,175.0,1
0.867,180.356,312.0,0.867,180.356,312.0,0.867,180.356,312.0,0.943,185.359,504.0,0.0,0.0,0.0,0.0,0.0,0.0,0.938,172.749,483.0,0.943,185.359,504.0,1
0.807,197.006,176.0,0.807,197.006,176.0,0.807,197.006,176.0,0.817,205.975,199.0,0.0,0.0,0.0,0.0,0.0,0.0,0.78,183.963,161.0,0.817,205.975,199.0,1
0.916,106.331,296.0,0.916,106.331,296.0,0.923,105.487,310.0,0.908,126.187,284.0,0.0,0.0,0.0,0.688,54.99,105.0,0.881,84.439,255.0,0.908,126.187,284.0,1
1.474,10.438,28248.0,1.129,58.143,3476.0,1.137,100.77,3607.0,1.233,155.288,6402.0,1.526,7.837,29671.0,1.221,57.271,5114.0,1.291,128.003,8573.0,1.233,155.288,6402.0,0
1.215,41.455,5957.0,1.184,66.354,4979.0,1.166,113.122,4789.0,1.262,180.631,7304.0,1.282,19.085,7263.0,1.262,62.578,7270.0,1.317,145.886,11496.0,1.262,180.631,7304.0,0
0.896,184.203,408.0,0.896,184.203,408.0,0.896,184.203,408.0,0.921,204.992,480.0,0.0,0.0,0.0,0.0,0.0,0.0,0.942,180.638,538.0,0.921,204.992,480.0,1
1.138,59.74,3681.0,1.138,74.989,3670.0,1.162,112.972,4146.0,1.263,186.066,6940.0,1.203,19.394,4645.0,1.217,58.023,5250.0,1.336,150.018,11181.0,1.263,186.066,6940.0,0
1.14,41.461,3753.0,1.112,59.505,3217.0,1.141,98.348,3567.0,1.257,175.068,6765.0,1.234,17.514,5075.0,1.226,57.081,5140.0,1.333,143.877,10693.0,1.257,175.068,6765.0,0
1.193,51.622,5664.0,1.189,70.862,5309.0,1.204,108.259,5962.0,1.214,183.253,5836.0,1.24,17.316,6516.0,1.245,54.003,6845.0,1.297,134.553,10836.0,1.214,183.253,5836.0,0
0.623,174.667,72.0,0.623,174.667,72.0,0.623,174.667,72.0,0.626,192.598,87.0,0.0,0.0,0.0,0.0,0.0,0.0,0.703,174.984,122.0,0.626,192.598,87.0,1
1.003,139.978,504.0,1.003,139.978,504.0,1.003,139.978,504.0,1.261,145.66,2183.0,0.0,0.0,0.0,0.0,0.0,0.0,1.283,139.216,2574.0,1.261,145.66,2183.0,1
1.143,40.227,3875.0,1.123,57.524,3407.0,1.144,96.96,3780.0,1.314,162.988,9642.0,1.247,18.549,5316.0,1.243,57.372,5314.0,1.365,138.466,12945.0,1.314,162.988,9642.0,0
1.224,32.141,6576.0,1.141,75.795,3978.0,1.175,99.845,4991.0,1.438,139.997,21621.0,1.278,11.198,7737.0,1.224,51.809,5649.0,1.435,122.443,22406.0,1.438,139.997,21621.0,0
0.795,162.716,176.0,0.795,162.716,176.0,0.795,162.716,176.0,0.861,171.035,256.0,0.0,0.0,0.0,0.0,0.0,0.0,0.895,161.178,325.0,0.861,171.035,256.0,1
0.864,200.324,216.0,0.864,200.324,216.0,0.864,200.324,216.0,0.846,209.37,189.0,0.0,0.0,0.0,0.0,0.0,0.0,0.92,198.003,303.0,0.846,209.37,189.0,1
1.462,11.77,26878.0,1.159,58.247,4924.0,1.181,108.538,5404.0,1.252,168.026,8093.0,1.488,10.125,29521.0,1.252,67.568,8260.0,1.326,137.919,12289.0,1.252,168.026,8093.0,0
1.192,41.399,5448.0,1.164,75.234,4715.0,1.167,116.529,4851.0,1.124,196.501,3387.0,1.245,17.149,6883.0,1.25,58.832,6233.0,1.218,132.629,6803.0,1.124,196.501,3387.0,0
0.814,165.924,288.0,0.814,165.924,288.0,0.814,165.924,288.0,0.97,172.117,761.0,0.0,0.0,0.0,0.0,0.0,0.0,1.017,166.476,932.0,0.97,172.117,761.0,1
1.201,66.736,6501.0,1.201,87.364,6467.0,1.215,118.408,7304.0,1.222,174.848,6709.0,1.209,18.339,6068.0,1.221,59.847,6690.0,1.301,132.591,11662.0,1.222,174.848,6709.0,0
1.198,44.382,6047.0,1.188,64.324,5637.0,1.198,106.757,6044.0,1.217,176.527,6106.0,1.232,19.967,6858.0,1.25,60.023,7773.0,1.307,134.225,11399.0,1.217,176.527,6106.0,0
1.186,37.807,5567.0,1.183,58.354,5332.0,1.203,104.377,5948.0,1.242,172.49,7250.0,1.239,18.363,6929.0,1.273,59.573,8229.0,1.325,132.905,12142.0,1.242,172.49,7250.0,0
1.195,30.438,5858.0,1.159,55.053,4817.0,1.178,102.444,5305.0,1.22,175.835,6799.0,1.249,18.807,7775.0,1.252,61.705,8139.0,1.302,135.415,11104.0,1.22,175.835,6799.0,0
1.123,66.912,3559.0,1.127,77.792,3642.0,1.157,111.521,4079.0,1.247,170.555,6933.0,1.169,21.144,3991.0,1.199,64.182,5414.0,1.313,139.036,9831.0,1.247,170.555,6933.0,0
1.088,43.948,2738.0,1.132,47.601,3536.0,1.088,93.395,2613.0,1.133,167.911,3197.0,1.195,18.733,4041.0,1.186,50.284,4665.0,1.244,134.851,6483.0,1.133,167.911,3197.0,0
1.158,53.181,4274.0,1.172,64.8,4760.0,1.259,92.738,8541.0,1.3,151.32,9380.0,1.233,19.55,5894.0,1.31,60.238,9738.0,1.38,114.698,16928.0,1.3,151.32,9380.0,0
0.907,122.486,280.0,0.907,122.486,280.0,0.907,122.486,280.0,0.951,141.211,374.0,0.0,0.0,0.0,0.0,0.0,0.0,0.975,119.146,419.0,0.951,141.211,374.0,1
0.903,187.028,472.0,0.903,187.028,472.0,0.903,187.028,472.0,1.026,199.718,929.0,0.0,0.0,0.0,0.0,0.0,0.0,1.06,190.312,1181.0,1.026,199.718,929.0,1
1.163,39.795,4157.0,1.154,59.987,3932.0,1.172,105.53,4339.0,1.365,165.016,11718.0,1.254,16.845,5342.0,1.224,52.537,5483.0,1.39,141.127,14872.0,1.365,165.016,11718.0,0
0.851,161.026,418.0,0.851,161.026,418.0,0.851,161.026,418.0,0.942,182.889,669.0,0.0,0.0,0.0,0.0,0.0,0.0,1.001,170.661,986.0,0.942,182.889,669.0,1
1.1,55.789,3049.0,1.127,69.409,3766.0,1.139,114.784,3848.0,1.319,169.27,11569.0,1.196,22.263,4946.0,1.225,64.667,5345.0,1.33,147.42,12030.0,1.319,169.27,11569.0,0
1.116,65.148,3504.0,1.129,75.837,3830.0,1.138,107.915,4037.0,1.308,148.629,10436.0,1.172,17.814,4594.0,1.192,53.418,4926.0,1.327,124.395,11766.0,1.308,148.629,10436.0,0
1.003,158.801,568.0,1.003,158.801,568.0,1.003,158.801,568.0,1.054,171.186,709.0,0.0,0.0,0.0,0.0,0.0,0.0,1.049,148.099,767.0,1.054,171.186,709.0,1
0.927,161.677,508.0,0.927,161.677,508.0,0.927,161.677,508.0,0.962,191.697,646.0,0.0,0.0,0.0,0.0,0.0,0.0,1.078,176.273,1194.0,0.962,191.697,646.0,1
1.264,21.035,7934.0,1.188,41.371,5506.0,1.171,77.383,4922.0,1.257,117.49,7990.0,1.326,13.341,11160.0,1.282,44.318,8650.0,1.318,94.721,11058.0,1.257,117.49,7990.0,0
1.191,40.888,5653.0,1.206,55.503,6207.0,1.204,93.443,5801.0,1.21,165.789,5878.0,1.243,16.239,7047.0,1.267,48.475,8373.0,1.31,122.604,11623.0,1.21,165.789,5878.0,0
1.025,134.131,962.0,1.025,134.131,962.0,1.025,134.131,962.0,1.125,155.949,1592.0,0.0,0.0,0.0,0.0,0.0,0.0,1.194,143.03,2539.0,1.125,155.949,1592.0,1
1.171,62.793,5006.0,1.177,74.374,5019.0,1.193,106.817,5489.0,1.352,163.117,14155.0,1.194,18.266,5305.0,1.246,55.837,6596.0,1.396,136.848,17635.0,1.352,163.117,14155.0,0
1.121,39.902,3793.0,1.129,53.711,3673.0,1.15,92.167,4131.0,1.366,157.456,14331.0,1.222,17.714,5495.0,1.23,53.964,5993.0,1.403,137.085,18150.0,1.366,157.456,14331.0,0
1.139,63.932,3801.0,1.158,69.495,4309.0,1.167,106.345,4668.0,1.325,149.873,11458.0,1.227,19.163,4887.0,1.237,53.357,6015.0,1.339,124.385,12845.0,1.325,149.873,11458.0,0
1.071,48.332,2502.0,1.102,54.074,3022.0,1.122,91.105,3273.0,1.388,151.208,14043.0,1.188,19.155,3816.0,1.199,52.768,4882.0,1.41,134.124,16540.0,1.388,151.208,14043.0,0
1.168,53.078,4977.0,1.136,77.885,4068.0,1.173,113.531,5020.0,1.42,173.709,20796.0,1.221,19.303,5988.0,1.23,64.946,6346.0,1.447,155.634,25258.0,1.42,173.709,20796.0,0
1.243,72.744,7813.0,1.237,95.621,7515.0,1.234,141.59,7733.0,1.203,221.047,6267.0,1.27,24.419,7569.0,1.28,71.769,9185.0,1.318,160.904,12764.0,1.468,247.296,30856.0,0
1.107,77.851,3326.0,1.12,83.976,3535.0,1.141,112.954,4124.0,1.336,161.908,11487.0,1.15,22.005,3644.0,1.184,61.437,4691.0,1.345,139.536,13141.0,1.336,161.892,11485.0,0
1.065,42.752,2414.0,1.071,54.866,2517.0,1.122,95.602,3226.0,1.331,163.891,9984.0,1.146,20.585,3605.0,1.184,59.97,4425.0,1.371,142.459,12918.0,1.331,163.891,9984.0,0
1.139,69.469,3812.0,1.156,81.959,4188.0,1.177,116.489,4865.0,1.367,171.592,13122.0,1.186,21.472,4376.0,1.219,60.312,5442.0,1.403,145.739,19369.0,1.367,171.592,13122.0,0
1.116,49.668,3306.0,1.117,62.447,3256.0,1.144,97.073,3672.0,1.312,150.458,9178.0,1.175,17.087,4179.0,1.198,52.024,4771.0,1.367,126.209,12490.0,1.312,150.458,9178.0,0
1.161,53.389,4433.0,1.144,69.816,3998.0,1.239,92.431,7216.0,1.411,150.807,17107.0,1.243,19.921,5268.0,1.301,64.543,8931.0,1.444,127.459,23257.0,1.411,150.807,17107.0,0
1.155,37.004,4190.0,1.142,53.769,3742.0,1.225,88.029,6298.0,1.352,155.916,11332.0,1.266,17.758,6015.0,1.277,58.702,7618.0,1.415,127.488,17672.0,1.352,155.916,11332.0,0
1.151,69.085,3870.0,1.163,85.78,4145.0,1.185,129.239,4522.0,1.185,190.827,4049.0,1.179,22.716,4278.0,1.222,66.285,5585.0,1.253,139.204,6667.0,1.185,190.827,4049.0,0
1.531,10.031,37903.0,1.14,85.174,3680.0,1.184,135.516,3997.0,1.171,201.45,3683.0,1.548,6.733,39235.0,1.188,67.958,4617.0,1.248,146.512,5613.0,1.171,201.45,3683.0,0
1.403,11.506,20119.0,1.128,70.374,3416.0,1.152,106.151,3991.0,1.286,165.466,7953.0,1.432,7.509,21598.0,1.208,58.454,4956.0,1.338,136.365,11282.0,1.286,165.466,7953.0,0
0.905,136.701,314.0,0.905,136.701,314.0,0.905,136.701,314.0,1.009,159.228,628.0,0.0,0.0,0.0,0.0,0.0,0.0,1.037,145.141,700.0,1.009,159.228,628.0,0
1.185,53.345,5598.0,1.17,74.3,5165.0,1.191,117.563,5193.0,1.357,174.826,13888.0,1.228,19.383,6504.0,1.232,61.259,6833.0,1.396,151.016,17335.0,1.357,174.826,13888.0,0
1.185,39.112,5227.0,1.175,60.663,4930.0,1.19,107.725,5320.0,1.304,176.324,10399.0,1.267,18.991,6869.0,1.261,60.107,7452.0,1.364,146.769,14947.0,1.304,176.324,10399.0,0
1.193,40.53,5930.0,1.174,61.221,5192.0,1.21,96.866,6163.0,1.351,158.465,13506.0,1.247,17.027,7245.0,1.264,54.418,8250.0,1.411,132.065,20006.0,1.351,158.465,13506.0,0
1.186,27.784,5492.0,1.137,47.219,4146.0,1.173,83.138,4941.0,1.25,128.601,8381.0,1.28,15.67,7690.0,1.25,51.155,7376.0,1.314,103.493,11251.0,1.25,128.601,8381.0,0
1.191,46.921,6040.0,1.178,65.069,5454.0,1.186,115.598,5366.0,1.236,180.261,7049.0,1.229,22.869,6848.0,1.269,72.72,8548.0,1.314,144.148,10873.0,1.236,180.261,7049.0,0
1.14,32.127,4371.0,1.131,51.889,3839.0,1.161,100.584,4522.0,1.324,167.574,11518.0,1.247,20.069,6600.0,1.24,63.9,6691.0,1.364,143.756,15136.0,1.324,167.574,11518.0,0
1.162,53.383,4582.0,1.167,68.376,4751.0,1.208,102.159,5947.0,1.122,180.26,3636.0,1.206,17.305,5485.0,1.255,52.717,6889.0,1.249,116.608,8189.0,1.122,180.26,3636.0,0
1.159,40.239,4461.0,1.137,56.784,3942.0,1.167,90.448,4782.0,1.192,160.067,5864.0,1.244,15.285,5815.0,1.254,49.657,6283.0,1.288,122.803,10535.0,1.192,160.067,5864.0,0
1.172,45.299,5164.0,1.159,61.262,4672.0,1.189,90.845,5379.0,1.368,126.976,16330.0,1.221,15.836,6272.0,1.257,50.231,7269.0,1.388,108.214,16886.0,1.368,126.976,16330.0,0
1.198,29.564,5993.0,1.168,50.497,4965.0,1.19,86.714,5724.0,1.469,133.961,28354.0,1.261,14.073,6959.0,1.253,47.096,7493.0,1.492,119.558,33836.0,1.469,133.961,28354.0,0
1.175,41.314,5106.0,1.15,59.575,4292.0,1.173,90.544,4888.0,1.139,168.226,3222.0,1.235,14.913,6264.0,1.235,48.404,6172.0,1.242,113.787,7848.0,1.139,168.226,3222.0,0
1.125,34.206,3416.0,1.092,50.175,2863.0,1.134,84.515,3254.0,1.043,170.724,1538.0,1.217,15.178,4779.0,1.212,48.388,4675.0,1.189,105.875,4611.0,1.043,170.724,1538.0,0
1.19,44.63,5296.0,1.15,66.201,4199.0,1.175,92.556,4968.0,1.273,128.559,8791.0,1.24,14.823,6300.0,1.227,47.712,5891.0,1.309,101.749,10591.0,1.273,128.559,8791.0,0
1.223,28.849,5916.0,1.16,53.273,4113.0,1.181,88.348,4690.0,1.267,127.709,7407.0,1.282,13.228,7350.0,1.246,47.101,6119.0,1.309,99.528,9446.0,1.267,127.709,7407.0,0
1.276,33.867,8949.0,1.179,70.422,4856.0,1.174,103.092,4795.0,1.228,169.597,5718.0,1.313,13.032,9812.0,1.244,52.802,6235.0,1.297,130.33,10683.0,1.228,169.597,5718.0,0
1.094,57.933,2709.0,1.114,61.906,3183.0,1.14,94.78,3649.0,1.075,175.228,2190.0,1.199,19.407,3895.0,1.241,52.985,5054.0,1.193,113.967,5143.0,1.075,175.228,2190.0,0
1.213,40.772,6668.0,1.202,61.216,5840.0,1.197,100.853,5644.0,1.189,178.126,5314.0,1.276,16.511,8740.0,1.275,50.101,7988.0,1.289,128.506,10406.0,1.189,178.126,5314.0,0
1.205,31.048,6334.0,1.175,53.571,5132.0,1.187,95.998,5403.0,1.181,173.903,5294.0,1.298,16.956,8897.0,1.269,54.008,8132.0,1.299,131.557,10951.0,1.181,173.903,5294.0,0
1.17,44.425,5042.0,1.164,63.274,4729.0,1.18,99.942,5208.0,1.068,186.336,2516.0,1.225,17.395,6532.0,1.25,52.875,7296.0,1.22,114.072,6860.0,1.068,186.336,2516.0,0
1.166,28.777,4903.0,1.138,48.405,4210.0,1.162,89.076,4508.0,1.239,130.534,7692.0,1.262,15.757,6995.0,1.25,49.918,6619.0,1.297,106.283,10448.0,1.239,130.534,7692.0,0
1.175,55.772,5232.0,1.171,78.308,4796.0,1.193,120.294,5434.0,1.275,171.004,9565.0,1.227,21.576,6475.0,1.253,64.787,6745.0,1.327,140.444,11938.0,1.275,171.004,9565.0,0
0.697,191.112,152.0,0.697,191.112,152.0,0.697,191.112,152.0,0.728,202.597,186.0,0.0,0.0,0.0,0.0,0.0,0.0,0.824,194.923,337.0,0.728,202.597,186.0,1
1.237,43.371,7552.0,1.202,67.195,6144.0,1.215,98.015,6673.0,1.412,134.813,21268.0,1.263,15.05,7998.0,1.254,51.929,7608.0,1.425,116.415,21365.0,1.412,134.813,21268.0,0
0.841,156.947,304.0,0.841,156.947,304.0,0.841,156.947,304.0,0.894,169.531,437.0,0.0,0.0,0.0,0.0,0.0,0.0,0.969,158.559,640.0,0.894,169.531,437.0,1
0.91,193.98,736.0,0.91,193.98,736.0,0.91,193.98,736.0,1.024,207.355,1430.0,0.0,0.0,0.0,0.0,0.0,0.0,1.034,196.502,1467.0,1.024,207.355,1430.0,1
1.171,35.47,5039.0,1.155,54.85,4221.0,1.16,94.852,4458.0,1.342,162.014,12934.0,1.258,17.253,6749.0,1.244,54.458,6392.0,1.387,139.892,17188.0,1.342,162.014,12934.0,0
1.106,69.837,3270.0,1.13,77.527,3602.0,1.129,116.48,3545.0,1.136,175.727,3785.0,1.142,21.855,3869.0,1.186,64.207,4420.0,1.235,137.799,6423.0,1.136,175.727,3785.0,0
1.045,80.39,2048.0,1.09,76.555,2743.0,1.108,116.693,2922.0,1.147,176.689,3832.0,1.112,22.562,2883.0,1.159,63.833,3608.0,1.23,140.36,5719.0,1.147,176.689,3832.0,0
1.162,46.983,4605.0,1.193,70.234,5856.0,1.203,112.606,6118.0,1.263,178.553,8501.0,1.243,17.301,7234.0,1.255,57.296,7669.0,1.336,142.398,13900.0,1.263,178.553,8501.0,0
1.265,28.873,8147.0,1.158,66.04,4629.0,1.167,118.476,5027.0,1.238,187.826,7421.0,1.329,15.165,10348.0,1.265,61.81,7143.0,1.302,150.174,11514.0,1.238,187.826,7421.0,0
1.079,63.332,2762.0,1.173,73.584,4790.0,1.181,114.863,5150.0,1.211,169.16,5962.0,1.206,22.806,5363.0,1.25,63.583,6640.0,1.284,130.798,9111.0,1.211,169.16,5962.0,0
1.443,13.946,21508.0,1.149,63.575,3854.0,1.14,114.208,3649.0,1.204,174.362,5106.0,1.496,9.822,23384.0,1.221,61.622,5442.0,1.27,139.994,7692.0,1.204,174.362,5106.0,0
